<?xml version="1.0" encoding="UTF-8"?>
<symbol version="7" name="full_adder_1bit">
    <symboltype>BLOCK</symboltype>
    <timestamp>2014-10-23T10:34:54</timestamp>
    <pin polarity="Input" x="0" y="-160" name="FA_IN_CARRY" />
    <pin polarity="Input" x="0" y="-96" name="FA_IN_B" />
    <pin polarity="Input" x="0" y="-32" name="FA_IN_A" />
    <pin polarity="Output" x="480" y="-160" name="FA_OUT_SUM" />
    <pin polarity="Output" x="480" y="-32" name="FA_OUT_CARRY" />
    <graph>
        <rect width="352" x="64" y="-192" height="192" />
        <attrtext style="alignment:BCENTER;fontsize:56;fontname:Arial" attrname="SymbolName" x="240" y="-200" type="symbol" />
        <attrtext style="fontsize:24;fontname:Arial" attrname="PinName" x="72" y="-160" type="pin FA_IN_CARRY" />
        <line x2="0" y1="-160" y2="-160" x1="64" />
        <attrtext style="fontsize:24;fontname:Arial" attrname="PinName" x="72" y="-96" type="pin FA_IN_B" />
        <line x2="0" y1="-96" y2="-96" x1="64" />
        <attrtext style="fontsize:24;fontname:Arial" attrname="PinName" x="72" y="-32" type="pin FA_IN_A" />
        <line x2="0" y1="-32" y2="-32" x1="64" />
        <attrtext style="alignment:RIGHT;fontsize:24;fontname:Arial" attrname="PinName" x="408" y="-160" type="pin FA_OUT_SUM" />
        <line x2="480" y1="-160" y2="-160" x1="416" />
        <attrtext style="alignment:RIGHT;fontsize:24;fontname:Arial" attrname="PinName" x="408" y="-32" type="pin FA_OUT_CARRY" />
        <line x2="480" y1="-32" y2="-32" x1="416" />
    </graph>
</symbol>
