<?xml version="1.0" encoding="UTF-8"?>
<symbol version="7" name="Addierer_4bit">
    <symboltype>BLOCK</symboltype>
    <timestamp>2014-10-29T9:24:18</timestamp>
    <pin polarity="Input" x="0" y="-32" name="Add_4_B3" />
    <pin polarity="Output" x="432" y="-32" name="Add_4_Out_C" />
    <pin polarity="Input" x="0" y="-96" name="Add_4_B2" />
    <pin polarity="Input" x="0" y="-160" name="Add_4_B1" />
    <pin polarity="Input" x="0" y="-224" name="Add_4_B0" />
    <pin polarity="Input" x="0" y="-608" name="Add_4_A0" />
    <pin polarity="Input" x="0" y="-544" name="Add_4_A1" />
    <pin polarity="Input" x="0" y="-480" name="Add_4_A2" />
    <pin polarity="Input" x="0" y="-416" name="Add_4_A3" />
    <pin polarity="Input" x="0" y="-672" name="Add_4_En" />
    <pin polarity="Output" x="432" y="-224" name="Add_4_S_1" />
    <pin polarity="Output" x="432" y="-160" name="Add_4_S2" />
    <pin polarity="Output" x="432" y="-96" name="Add_4_S3" />
    <pin polarity="Input" x="0" y="-352" name="Add_4_In_C" />
    <pin polarity="Output" x="432" y="-352" name="Add_4_S0" />
    <pin polarity="Input" x="432" y="-656" name="Add_4_En_B" />
    <graph>
        <rect width="304" x="64" y="-704" height="704" />
        <attrtext style="alignment:BCENTER;fontsize:56;fontname:Arial" attrname="SymbolName" x="216" y="-712" type="symbol" />
        <attrtext style="fontsize:24;fontname:Arial" attrname="PinName" x="72" y="-32" type="pin Add_4_B3" />
        <line x2="0" y1="-32" y2="-32" x1="64" />
        <attrtext style="alignment:RIGHT;fontsize:24;fontname:Arial" attrname="PinName" x="360" y="-32" type="pin Add_4_Out_C" />
        <line x2="432" y1="-32" y2="-32" x1="368" />
        <attrtext style="fontsize:24;fontname:Arial" attrname="PinName" x="72" y="-96" type="pin Add_4_B2" />
        <line x2="0" y1="-96" y2="-96" x1="64" />
        <attrtext style="fontsize:24;fontname:Arial" attrname="PinName" x="72" y="-160" type="pin Add_4_B1" />
        <line x2="0" y1="-160" y2="-160" x1="64" />
        <attrtext style="fontsize:24;fontname:Arial" attrname="PinName" x="72" y="-224" type="pin Add_4_B0" />
        <line x2="0" y1="-224" y2="-224" x1="64" />
        <attrtext style="fontsize:24;fontname:Arial" attrname="PinName" x="72" y="-608" type="pin Add_4_A0" />
        <line x2="0" y1="-608" y2="-608" x1="64" />
        <attrtext style="fontsize:24;fontname:Arial" attrname="PinName" x="72" y="-544" type="pin Add_4_A1" />
        <line x2="0" y1="-544" y2="-544" x1="64" />
        <attrtext style="fontsize:24;fontname:Arial" attrname="PinName" x="72" y="-480" type="pin Add_4_A2" />
        <line x2="0" y1="-480" y2="-480" x1="64" />
        <attrtext style="fontsize:24;fontname:Arial" attrname="PinName" x="72" y="-416" type="pin Add_4_A3" />
        <line x2="0" y1="-416" y2="-416" x1="64" />
        <attrtext style="fontsize:24;fontname:Arial" attrname="PinName" x="72" y="-672" type="pin Add_4_En" />
        <line x2="0" y1="-672" y2="-672" x1="64" />
        <attrtext style="alignment:RIGHT;fontsize:24;fontname:Arial" attrname="PinName" x="360" y="-224" type="pin Add_4_S_1" />
        <line x2="432" y1="-224" y2="-224" x1="368" />
        <attrtext style="alignment:RIGHT;fontsize:24;fontname:Arial" attrname="PinName" x="360" y="-160" type="pin Add_4_S2" />
        <line x2="432" y1="-160" y2="-160" x1="368" />
        <attrtext style="alignment:RIGHT;fontsize:24;fontname:Arial" attrname="PinName" x="360" y="-96" type="pin Add_4_S3" />
        <line x2="432" y1="-96" y2="-96" x1="368" />
        <attrtext style="fontsize:24;fontname:Arial" attrname="PinName" x="72" y="-352" type="pin Add_4_In_C" />
        <line x2="0" y1="-352" y2="-352" x1="64" />
        <attrtext style="alignment:RIGHT;fontsize:24;fontname:Arial" attrname="PinName" x="360" y="-352" type="pin Add_4_S0" />
        <line x2="432" y1="-352" y2="-352" x1="368" />
        <line x2="368" y1="-656" y2="-656" x1="432" />
        <attrtext style="fontsize:24;fontname:Arial" attrname="PinName" x="224" y="-656" type="pin Add_4_En_B" />
    </graph>
</symbol>
