<?xml version="1.0" encoding="UTF-8"?>
<symbol version="7" name="Decoder">
    <symboltype>BLOCK</symboltype>
    <timestamp>2014-11-6T7:57:44</timestamp>
    <pin polarity="Input" x="0" y="-224" name="IN_F1" />
    <pin polarity="Input" x="0" y="-32" name="IN_F0" />
    <pin polarity="Output" x="384" y="-224" name="OUT_EN0" />
    <pin polarity="Output" x="384" y="-160" name="OUT_EN1" />
    <pin polarity="Output" x="384" y="-96" name="OUT_EN2" />
    <pin polarity="Output" x="384" y="-32" name="OUT_EN3" />
    <graph>
        <rect width="256" x="64" y="-256" height="256" />
        <attrtext style="alignment:BCENTER;fontsize:56;fontname:Arial" attrname="SymbolName" x="192" y="-264" type="symbol" />
        <attrtext style="fontsize:24;fontname:Arial" attrname="PinName" x="72" y="-224" type="pin IN_F1" />
        <line x2="0" y1="-224" y2="-224" x1="64" />
        <attrtext style="fontsize:24;fontname:Arial" attrname="PinName" x="72" y="-32" type="pin IN_F0" />
        <line x2="0" y1="-32" y2="-32" x1="64" />
        <attrtext style="alignment:RIGHT;fontsize:24;fontname:Arial" attrname="PinName" x="312" y="-224" type="pin OUT_EN0" />
        <line x2="384" y1="-224" y2="-224" x1="320" />
        <attrtext style="alignment:RIGHT;fontsize:24;fontname:Arial" attrname="PinName" x="312" y="-160" type="pin OUT_EN1" />
        <line x2="384" y1="-160" y2="-160" x1="320" />
        <attrtext style="alignment:RIGHT;fontsize:24;fontname:Arial" attrname="PinName" x="312" y="-96" type="pin OUT_EN2" />
        <line x2="384" y1="-96" y2="-96" x1="320" />
        <attrtext style="alignment:RIGHT;fontsize:24;fontname:Arial" attrname="PinName" x="312" y="-32" type="pin OUT_EN3" />
        <line x2="384" y1="-32" y2="-32" x1="320" />
    </graph>
</symbol>
