<?xml version="1.0" encoding="UTF-8"?>
<symbol version="7" name="Adder_1Bit">
    <symboltype>BLOCK</symboltype>
    <timestamp>2014-10-29T8:14:45</timestamp>
    <pin polarity="Input" x="0" y="-80" name="Enable" />
    <pin polarity="Input" x="0" y="-144" name="In_A" />
    <pin polarity="Input" x="0" y="-192" name="IN_B" />
    <pin polarity="Output" x="384" y="-176" name="SUM" />
    <pin polarity="Input" x="0" y="-240" name="Enable_B" />
    <pin polarity="Input" x="192" y="-384" name="Carry_IN" />
    <pin polarity="Output" x="192" y="48" name="Carry_OUT" />
    <graph>
        <rect width="256" x="64" y="-320" height="320" />
        <line x2="192" y1="48" y2="-12" x1="192" />
        <attrtext style="alignment:BCENTER;fontsize:56;fontname:Arial" attrname="SymbolName" x="188" y="-428" type="symbol" />
        <line x2="192" y1="-312" y2="-384" x1="192" />
        <attrtext style="alignment:RIGHT;fontsize:24;fontname:Arial" attrname="PinName" x="252" y="-32" type="pin Carry_OUT" />
        <line x2="0" y1="-80" y2="-80" x1="64" />
        <attrtext style="fontsize:24;fontname:Arial" attrname="PinName" x="72" y="-80" type="pin Enable" />
        <line x2="0" y1="-192" y2="-192" x1="64" />
        <line x2="0" y1="-144" y2="-144" x1="64" />
        <attrtext style="fontsize:24;fontname:Arial" attrname="PinName" x="72" y="-144" type="pin In_A" />
        <attrtext style="fontsize:24;fontname:Arial" attrname="PinName" x="72" y="-192" type="pin IN_B" />
        <line x2="384" y1="-176" y2="-176" x1="320" />
        <attrtext style="alignment:RIGHT;fontsize:24;fontname:Arial" attrname="PinName" x="312" y="-176" type="pin SUM" />
        <line x2="0" y1="-240" y2="-240" x1="64" />
        <attrtext style="fontsize:24;fontname:Arial" attrname="PinName" x="72" y="-240" type="pin Enable_B" />
        <attrtext style="fontsize:24;fontname:Arial" attrname="PinName" x="152" y="-288" type="pin Carry_IN" />
    </graph>
</symbol>
