<?xml version="1.0" encoding="UTF-8"?>
<drawing version="7">
    <attr value="spartan6" name="DeviceFamilyName">
        <trait delete="all:0" />
        <trait editname="all:0" />
        <trait edittrait="all:0" />
    </attr>
    <netlist>
        <signal name="XLXN_2" />
        <signal name="C" />
        <signal name="A" />
        <signal name="B" />
        <signal name="Y" />
        <port polarity="Input" name="C" />
        <port polarity="Input" name="A" />
        <port polarity="Input" name="B" />
        <port polarity="Output" name="Y" />
        <blockdef name="and2">
            <timestamp>2000-1-1T10:10:10</timestamp>
            <line x2="64" y1="-64" y2="-64" x1="0" />
            <line x2="64" y1="-128" y2="-128" x1="0" />
            <line x2="192" y1="-96" y2="-96" x1="256" />
            <arc ex="144" ey="-144" sx="144" sy="-48" r="48" cx="144" cy="-96" />
            <line x2="64" y1="-48" y2="-48" x1="144" />
            <line x2="144" y1="-144" y2="-144" x1="64" />
            <line x2="64" y1="-48" y2="-144" x1="64" />
        </blockdef>
        <blockdef name="or2">
            <timestamp>2000-1-1T10:10:10</timestamp>
            <line x2="64" y1="-64" y2="-64" x1="0" />
            <line x2="64" y1="-128" y2="-128" x1="0" />
            <line x2="192" y1="-96" y2="-96" x1="256" />
            <arc ex="192" ey="-96" sx="112" sy="-48" r="88" cx="116" cy="-136" />
            <arc ex="48" ey="-144" sx="48" sy="-48" r="56" cx="16" cy="-96" />
            <line x2="48" y1="-144" y2="-144" x1="112" />
            <arc ex="112" ey="-144" sx="192" sy="-96" r="88" cx="116" cy="-56" />
            <line x2="48" y1="-48" y2="-48" x1="112" />
        </blockdef>
        <block symbolname="or2" name="XLXI_2">
            <blockpin signalname="C" name="I0" />
            <blockpin signalname="XLXN_2" name="I1" />
            <blockpin signalname="Y" name="O" />
        </block>
        <block symbolname="and2" name="XLXI_1">
            <blockpin signalname="B" name="I0" />
            <blockpin signalname="A" name="I1" />
            <blockpin signalname="XLXN_2" name="O" />
        </block>
    </netlist>
    <sheet sheetnum="1" width="3520" height="2720">
        <instance x="752" y="400" name="XLXI_2" orien="R0" />
        <branch name="XLXN_2">
            <wire x2="752" y1="272" y2="272" x1="688" />
        </branch>
        <branch name="C">
            <wire x2="752" y1="400" y2="400" x1="400" />
            <wire x2="752" y1="336" y2="352" x1="752" />
            <wire x2="752" y1="352" y2="400" x1="752" />
        </branch>
        <instance x="432" y="368" name="XLXI_1" orien="R0" />
        <branch name="A">
            <wire x2="432" y1="240" y2="240" x1="400" />
        </branch>
        <branch name="B">
            <wire x2="432" y1="304" y2="304" x1="400" />
        </branch>
        <branch name="Y">
            <wire x2="1040" y1="304" y2="304" x1="1008" />
        </branch>
        <iomarker fontsize="28" x="400" y="240" name="A" orien="R180" />
        <iomarker fontsize="28" x="400" y="304" name="B" orien="R180" />
        <iomarker fontsize="28" x="1040" y="304" name="Y" orien="R0" />
        <iomarker fontsize="28" x="400" y="400" name="C" orien="R180" />
    </sheet>
</drawing>